<?xml version="1.0" encoding="UTF-8" standalone="no"?>
<svg
   width="87.010002mm"
   height="39.41mm"
   viewBox="-39 -20 87.010002 39.410003"
   version="1.1"
   id="svg6"
   sodipodi:docname="cable_led_cutout.svg"
   inkscape:version="1.2.2 (b0a8486541, 2022-12-01)"
   xmlns:inkscape="http://www.inkscape.org/namespaces/inkscape"
   xmlns:sodipodi="http://sodipodi.sourceforge.net/DTD/sodipodi-0.dtd"
   xmlns="http://www.w3.org/2000/svg"
   xmlns:svg="http://www.w3.org/2000/svg"
   xmlns:rdf="http://www.w3.org/1999/02/22-rdf-syntax-ns#"
   xmlns:cc="http://creativecommons.org/ns#"
   xmlns:dc="http://purl.org/dc/elements/1.1/">
  <defs
     id="defs10" />
  <sodipodi:namedview
     id="namedview8"
     pagecolor="#ffffff"
     bordercolor="#666666"
     borderopacity="1.0"
     inkscape:showpageshadow="2"
     inkscape:pageopacity="0.0"
     inkscape:pagecheckerboard="false"
     inkscape:deskcolor="#d1d1d1"
     inkscape:document-units="mm"
     showgrid="false"
     inkscape:zoom="2.7148551"
     inkscape:cx="160.78206"
     inkscape:cy="71.827039"
     inkscape:window-width="1920"
     inkscape:window-height="1007"
     inkscape:window-x="0"
     inkscape:window-y="0"
     inkscape:window-maximized="1"
     inkscape:current-layer="svg6"
     showguides="true">
    <inkscape:grid
       type="xygrid"
       id="grid3722"
       originx="-1.1176091e-10"
       originy="-1.1176094e-10" />
  </sodipodi:namedview>
  <title
     id="title2">OpenSCAD Model</title>
  <path
     d="m 48.005,-19.995 h -4 v 16.7858 l -0.6142,0.61421 H -36.995 v 4.59998 h 85 z"
     stroke="#000000"
     fill="lightgray"
     stroke-width="0.5"
     id="path4"
     style="fill:none;fill-opacity:1;stroke-width:0.01;stroke-dasharray:none" />
  <metadata
     id="metadata744">
    <rdf:RDF>
      <cc:Work
         rdf:about="">
        <dc:title>OpenSCAD Model</dc:title>
      </cc:Work>
    </rdf:RDF>
  </metadata>
</svg>
